{
	"result": true,
	"msg": "查询成功",
	"obj": null,
	"objArray": [{
		"Id": 12142764,
		"Title": "",
		"CreateDate": "3天前",
		"Click": 234,
		"ContentDesc": "Craig",
		"Content": null,
		"ContentDescAll": "",
		"Address": "{\"streetNumber\":\"24号\",\"street\":\"览青大街\",\"district\":\"天河区\",\"city\":\"广州市\",\"province\":\"广东省\"}",
		"IsPraise": false,
		"Praise": 1,
		"Reward": 2,
		"CommentCount": 4,
		"ShareCount": 0,
		"IsNew": 1,
		"ArticleTypeID": 2042,
		"ArticleTypeName": "帅哥2",
		"VideoList": "",
		"IsAdv": false,
		"IsTop": 0,
		"IsSubTop": 0,
		"IsHot": false,
		"IsGuerdon": 34,
		"GuerdonMoney": 0,
		"user": {
			"Id": 10475223,
			"Headimgurl": "http://wx.qlogo.cn/mmopen/tZOqj4KIx0hUglACMt0LKibI0aFfNpz7otTfNg5BmHjvic4QFL6gZ5oFcYQQuso90tZt5eZcibgwbpbnpakSR4X7UE6na6oVP3z/132",
			"NickName": "zmx'",
			"Level": 0
		},
		"RewardUsers": null,
		"PraiseUsers": null,
		"articleComments": [{
			"Id": 23737997,
			"IsShowBest": 0,
			"CreateDate": "3天前",
			"Content": "支持！",
			"ContentHtml": "支持！",
			"ComUser": {
				"Id": 10475223,
				"Headimgurl": "http://wx.qlogo.cn/mmopen/tZOqj4KIx0hUglACMt0LKibI0aFfNpz7otTfNg5BmHjvic4QFL6gZ5oFcYQQuso90tZt5eZcibgwbpbnpakSR4X7UE6na6oVP3z/132",
				"NickName": "zmx'",
				"Level": 0
			},
			"DUser": {
				"Id": 10475223,
				"Headimgurl": "http://wx.qlogo.cn/mmopen/tZOqj4KIx0hUglACMt0LKibI0aFfNpz7otTfNg5BmHjvic4QFL6gZ5oFcYQQuso90tZt5eZcibgwbpbnpakSR4X7UE6na6oVP3z/132",
				"NickName": "zmx'",
				"Level": 0
			},
			"Voice": null,
			"Images": null,
			"Video": null
		}, {
			"Id": 23746707,
			"IsShowBest": 0,
			"CreateDate": "3天前",
			"Content": "支持！",
			"ContentHtml": "支持！",
			"ComUser": {
				"Id": 10475223,
				"Headimgurl": "http://wx.qlogo.cn/mmopen/tZOqj4KIx0hUglACMt0LKibI0aFfNpz7otTfNg5BmHjvic4QFL6gZ5oFcYQQuso90tZt5eZcibgwbpbnpakSR4X7UE6na6oVP3z/132",
				"NickName": "zmx'",
				"Level": 0
			},
			"DUser": {
				"Id": 10475223,
				"Headimgurl": "http://wx.qlogo.cn/mmopen/tZOqj4KIx0hUglACMt0LKibI0aFfNpz7otTfNg5BmHjvic4QFL6gZ5oFcYQQuso90tZt5eZcibgwbpbnpakSR4X7UE6na6oVP3z/132",
				"NickName": "zmx'",
				"Level": 0
			},
			"Voice": null,
			"Images": null,
			"Video": null
		}, {
			"Id": 23753875,
			"IsShowBest": 0,
			"CreateDate": "3天前",
			"Content": "哈哈",
			"ContentHtml": "哈哈",
			"ComUser": {
				"Id": 130869661,
				"Headimgurl": "http://wx.qlogo.cn/mmopen/tZOqj4KIx0hUglACMt0LK9pqbSxUUhsHUtLlthBsibJPZwkgl5kEzratBwOUKoYuDv0pu4rk4GiaOIxle7YNwQicKdILvWb3gXK/0",
				"NickName": "欢fion",
				"Level": 0
			},
			"DUser": {
				"Id": 10475223,
				"Headimgurl": "http://wx.qlogo.cn/mmopen/tZOqj4KIx0hUglACMt0LKibI0aFfNpz7otTfNg5BmHjvic4QFL6gZ5oFcYQQuso90tZt5eZcibgwbpbnpakSR4X7UE6na6oVP3z/132",
				"NickName": "zmx'",
				"Level": 0
			},
			"Voice": null,
			"Images": null,
			"Video": null
		}],
		"Voice": null,
		"Images": null,
		"video": null,
		"Type": null
	}, {
		"Id": 12048205,
		"Title": "",
		"CreateDate": "5天前",
		"Click": 280,
		"ContentDesc": "sdas",
		"Content": null,
		"ContentDescAll": "",
		"Address": "{\"streetNumber\":\"328号\",\"street\":\"中山四路\",\"district\":\"越秀区\",\"city\":\"广州市\",\"province\":\"广东省\"}",
		"IsPraise": false,
		"Praise": 2,
		"Reward": 0,
		"CommentCount": 7,
		"ShareCount": 0,
		"IsNew": 1,
		"ArticleTypeID": 2042,
		"ArticleTypeName": "帅哥2",
		"VideoList": "",
		"IsAdv": false,
		"IsTop": 0,
		"IsSubTop": 0,
		"IsHot": false,
		"IsGuerdon": 0,
		"GuerdonMoney": 0,
		"user": {
			"Id": 10475223,
			"Headimgurl": "http://wx.qlogo.cn/mmopen/tZOqj4KIx0hUglACMt0LKibI0aFfNpz7otTfNg5BmHjvic4QFL6gZ5oFcYQQuso90tZt5eZcibgwbpbnpakSR4X7UE6na6oVP3z/132",
			"NickName": "zmx'",
			"Level": 0
		},
		"RewardUsers": null,
		"PraiseUsers": null,
		"articleComments": [{
			"Id": 23785188,
			"IsShowBest": 0,
			"CreateDate": "3天前",
			"Content": "啊",
			"ContentHtml": "啊",
			"ComUser": {
				"Id": 193255182,
				"Headimgurl": "http://wx.qlogo.cn/mmopen/tZOqj4KIx0hUglACMt0LK2YOFkYSppKrtoeZoIn3bTAbsicdmjIWibPnZlT52iakvdHKu4hozTPEnhyKIoV9ibSOAY2rW24wzSnA/0",
				"NickName": "惊鸿一面",
				"Level": 0
			},
			"DUser": {
				"Id": 10475223,
				"Headimgurl": "http://wx.qlogo.cn/mmopen/tZOqj4KIx0hUglACMt0LKibI0aFfNpz7otTfNg5BmHjvic4QFL6gZ5oFcYQQuso90tZt5eZcibgwbpbnpakSR4X7UE6na6oVP3z/132",
				"NickName": "zmx'",
				"Level": 0
			},
			"Voice": null,
			"Images": null,
			"Video": null
		}, {
			"Id": 23917128,
			"IsShowBest": 0,
			"CreateDate": "1天前",
			"Content": "",
			"ContentHtml": "",
			"ComUser": {
				"Id": 10475223,
				"Headimgurl": "http://wx.qlogo.cn/mmopen/tZOqj4KIx0hUglACMt0LKibI0aFfNpz7otTfNg5BmHjvic4QFL6gZ5oFcYQQuso90tZt5eZcibgwbpbnpakSR4X7UE6na6oVP3z/132",
				"NickName": "zmx'",
				"Level": 0
			},
			"DUser": {
				"Id": 10475223,
				"Headimgurl": "http://wx.qlogo.cn/mmopen/tZOqj4KIx0hUglACMt0LKibI0aFfNpz7otTfNg5BmHjvic4QFL6gZ5oFcYQQuso90tZt5eZcibgwbpbnpakSR4X7UE6na6oVP3z/132",
				"NickName": "zmx'",
				"Level": 0
			},
			"Voice": null,
			"Images": null,
			"Video": null
		}, {
			"Id": 23917139,
			"IsShowBest": 0,
			"CreateDate": "1天前",
			"Content": "",
			"ContentHtml": "",
			"ComUser": {
				"Id": 10475223,
				"Headimgurl": "http://wx.qlogo.cn/mmopen/tZOqj4KIx0hUglACMt0LKibI0aFfNpz7otTfNg5BmHjvic4QFL6gZ5oFcYQQuso90tZt5eZcibgwbpbnpakSR4X7UE6na6oVP3z/132",
				"NickName": "zmx'",
				"Level": 0
			},
			"DUser": {
				"Id": 10475223,
				"Headimgurl": "http://wx.qlogo.cn/mmopen/tZOqj4KIx0hUglACMt0LKibI0aFfNpz7otTfNg5BmHjvic4QFL6gZ5oFcYQQuso90tZt5eZcibgwbpbnpakSR4X7UE6na6oVP3z/132",
				"NickName": "zmx'",
				"Level": 0
			},
			"Voice": null,
			"Images": null,
			"Video": null
		}, {
			"Id": 23917248,
			"IsShowBest": 0,
			"CreateDate": "1天前",
			"Content": "fafaf adfadfa",
			"ContentHtml": "fafaf adfadfa",
			"ComUser": {
				"Id": 10475223,
				"Headimgurl": "http://wx.qlogo.cn/mmopen/tZOqj4KIx0hUglACMt0LKibI0aFfNpz7otTfNg5BmHjvic4QFL6gZ5oFcYQQuso90tZt5eZcibgwbpbnpakSR4X7UE6na6oVP3z/132",
				"NickName": "zmx'",
				"Level": 0
			},
			"DUser": {
				"Id": 10475223,
				"Headimgurl": "http://wx.qlogo.cn/mmopen/tZOqj4KIx0hUglACMt0LKibI0aFfNpz7otTfNg5BmHjvic4QFL6gZ5oFcYQQuso90tZt5eZcibgwbpbnpakSR4X7UE6na6oVP3z/132",
				"NickName": "zmx'",
				"Level": 0
			},
			"Voice": null,
			"Images": null,
			"Video": null
		}, {
			"Id": 23917266,
			"IsShowBest": 0,
			"CreateDate": "1天前",
			"Content": "fafaf adfadfa",
			"ContentHtml": "fafaf adfadfa",
			"ComUser": {
				"Id": 10475223,
				"Headimgurl": "http://wx.qlogo.cn/mmopen/tZOqj4KIx0hUglACMt0LKibI0aFfNpz7otTfNg5BmHjvic4QFL6gZ5oFcYQQuso90tZt5eZcibgwbpbnpakSR4X7UE6na6oVP3z/132",
				"NickName": "zmx'",
				"Level": 0
			},
			"DUser": {
				"Id": 10475223,
				"Headimgurl": "http://wx.qlogo.cn/mmopen/tZOqj4KIx0hUglACMt0LKibI0aFfNpz7otTfNg5BmHjvic4QFL6gZ5oFcYQQuso90tZt5eZcibgwbpbnpakSR4X7UE6na6oVP3z/132",
				"NickName": "zmx'",
				"Level": 0
			},
			"Voice": null,
			"Images": null,
			"Video": null
		}, {
			"Id": 23917268,
			"IsShowBest": 0,
			"CreateDate": "1天前",
			"Content": "大风大发发爱的发的发",
			"ContentHtml": "大风大发发爱的发的发",
			"ComUser": {
				"Id": 10475223,
				"Headimgurl": "http://wx.qlogo.cn/mmopen/tZOqj4KIx0hUglACMt0LKibI0aFfNpz7otTfNg5BmHjvic4QFL6gZ5oFcYQQuso90tZt5eZcibgwbpbnpakSR4X7UE6na6oVP3z/132",
				"NickName": "zmx'",
				"Level": 0
			},
			"DUser": {
				"Id": 10475223,
				"Headimgurl": "http://wx.qlogo.cn/mmopen/tZOqj4KIx0hUglACMt0LKibI0aFfNpz7otTfNg5BmHjvic4QFL6gZ5oFcYQQuso90tZt5eZcibgwbpbnpakSR4X7UE6na6oVP3z/132",
				"NickName": "zmx'",
				"Level": 0
			},
			"Voice": null,
			"Images": null,
			"Video": null
		}, {
			"Id": 23975030,
			"IsShowBest": 0,
			"CreateDate": "22小时前",
			"Content": "",
			"ContentHtml": "",
			"ComUser": {
				"Id": 10475223,
				"Headimgurl": "http://wx.qlogo.cn/mmopen/tZOqj4KIx0hUglACMt0LKibI0aFfNpz7otTfNg5BmHjvic4QFL6gZ5oFcYQQuso90tZt5eZcibgwbpbnpakSR4X7UE6na6oVP3z/132",
				"NickName": "zmx'",
				"Level": 0
			},
			"DUser": {
				"Id": 10475223,
				"Headimgurl": "http://wx.qlogo.cn/mmopen/tZOqj4KIx0hUglACMt0LKibI0aFfNpz7otTfNg5BmHjvic4QFL6gZ5oFcYQQuso90tZt5eZcibgwbpbnpakSR4X7UE6na6oVP3z/132",
				"NickName": "zmx'",
				"Level": 0
			},
			"Voice": null,
			"Images": [{
				"thumbnail": "http://img.vzan.cc/image/png/2016/11/24/10195201aa3935bbfd4664a57c9387a4bd9a1a.png@1e_1c_0o_0l_100sh_200h_200w_90q.src",
				"filepath": "http://oss.vzan.cc/image/png/2016/11/24/10195201aa3935bbfd4664a57c9387a4bd9a1a.png"
			}],
			"Video": null
		}],
		"Voice": null,
		"Images": null,
		"video": null,
		"Type": null
	}, {
		"Id": 11956966,
		"Title": "",
		"CreateDate": "11-17",
		"Click": 220,
		"ContentDesc": "啊啊啊",
		"Content": null,
		"ContentDescAll": "",
		"Address": "",
		"IsPraise": false,
		"Praise": 0,
		"Reward": 0,
		"CommentCount": 0,
		"ShareCount": 0,
		"IsNew": 1,
		"ArticleTypeID": 2042,
		"ArticleTypeName": "帅哥2",
		"VideoList": "",
		"IsAdv": false,
		"IsTop": 0,
		"IsSubTop": 0,
		"IsHot": false,
		"IsGuerdon": 0,
		"GuerdonMoney": 0,
		"user": {
			"Id": 10475223,
			"Headimgurl": "http://wx.qlogo.cn/mmopen/tZOqj4KIx0hUglACMt0LKibI0aFfNpz7otTfNg5BmHjvic4QFL6gZ5oFcYQQuso90tZt5eZcibgwbpbnpakSR4X7UE6na6oVP3z/132",
			"NickName": "zmx'",
			"Level": 0
		},
		"RewardUsers": null,
		"PraiseUsers": null,
		"articleComments": null,
		"Voice": null,
		"Images": null,
		"video": null,
		"Type": null
	}, {
		"Id": 11951412,
		"Title": "",
		"CreateDate": "11-17",
		"Click": 185,
		"ContentDesc": null,
		"Content": null,
		"ContentDescAll": null,
		"Address": "{\"streetNumber\":\"328号\",\"street\":\"中山四路\",\"district\":\"越秀区\",\"city\":\"广州市\",\"province\":\"广东省\"}",
		"IsPraise": false,
		"Praise": 0,
		"Reward": 0,
		"CommentCount": 0,
		"ShareCount": 0,
		"IsNew": 1,
		"ArticleTypeID": 2042,
		"ArticleTypeName": "帅哥2",
		"VideoList": "",
		"IsAdv": false,
		"IsTop": 0,
		"IsSubTop": 0,
		"IsHot": false,
		"IsGuerdon": 0,
		"GuerdonMoney": 0,
		"user": {
			"Id": 10475223,
			"Headimgurl": "http://wx.qlogo.cn/mmopen/tZOqj4KIx0hUglACMt0LKibI0aFfNpz7otTfNg5BmHjvic4QFL6gZ5oFcYQQuso90tZt5eZcibgwbpbnpakSR4X7UE6na6oVP3z/132",
			"NickName": "zmx'",
			"Level": 0
		},
		"RewardUsers": null,
		"PraiseUsers": null,
		"articleComments": null,
		"Voice": null,
		"Images": [{
			"thumbnail": "http://img.vzan.cc/image/12334/2016/11/17/1644348188b49c40c04a829fe0d0f90596aeed.12334@1e_1c_0o_0l_100sh_200h_200w_90q.src",
			"filepath": "http://oss.vzan.cc/image/12334/2016/11/17/1644348188b49c40c04a829fe0d0f90596aeed.12334"
		}, {
			"thumbnail": "http://img.vzan.cc/image/12334/2016/11/17/164434ddb4341f6ff645b8956651ceafaaa3a5.12334@1e_1c_0o_0l_100sh_200h_200w_90q.src",
			"filepath": "http://oss.vzan.cc/image/12334/2016/11/17/164434ddb4341f6ff645b8956651ceafaaa3a5.12334"
		}],
		"video": null,
		"Type": null
	}, {
		"Id": 11951395,
		"Title": "",
		"CreateDate": "11-17",
		"Click": 141,
		"ContentDesc": "ssdasda",
		"Content": null,
		"ContentDescAll": "",
		"Address": "{\"streetNumber\":\"328号\",\"street\":\"中山四路\",\"district\":\"越秀区\",\"city\":\"广州市\",\"province\":\"广东省\"}",
		"IsPraise": false,
		"Praise": 1,
		"Reward": 0,
		"CommentCount": 0,
		"ShareCount": 0,
		"IsNew": 1,
		"ArticleTypeID": 2042,
		"ArticleTypeName": "帅哥2",
		"VideoList": "",
		"IsAdv": false,
		"IsTop": 0,
		"IsSubTop": 0,
		"IsHot": false,
		"IsGuerdon": 0,
		"GuerdonMoney": 0,
		"user": {
			"Id": 10475223,
			"Headimgurl": "http://wx.qlogo.cn/mmopen/tZOqj4KIx0hUglACMt0LKibI0aFfNpz7otTfNg5BmHjvic4QFL6gZ5oFcYQQuso90tZt5eZcibgwbpbnpakSR4X7UE6na6oVP3z/132",
			"NickName": "zmx'",
			"Level": 0
		},
		"RewardUsers": null,
		"PraiseUsers": null,
		"articleComments": null,
		"Voice": null,
		"Images": null,
		"video": null,
		"Type": null
	}, {
		"Id": 11826494,
		"Title": "",
		"CreateDate": "11-15",
		"Click": 301,
		"ContentDesc": "测试",
		"Content": null,
		"ContentDescAll": "",
		"Address": "{\"streetNumber\":\"\",\"street\":\"体育西路辅路\",\"district\":\"天河区\",\"city\":\"广州市\",\"province\":\"广东省\"}",
		"IsPraise": false,
		"Praise": 1,
		"Reward": 0,
		"CommentCount": 4,
		"ShareCount": 0,
		"IsNew": 1,
		"ArticleTypeID": 2042,
		"ArticleTypeName": "帅哥2",
		"VideoList": "",
		"IsAdv": false,
		"IsTop": 0,
		"IsSubTop": 0,
		"IsHot": false,
		"IsGuerdon": 0,
		"GuerdonMoney": 0,
		"user": {
			"Id": 10475223,
			"Headimgurl": "http://wx.qlogo.cn/mmopen/tZOqj4KIx0hUglACMt0LKibI0aFfNpz7otTfNg5BmHjvic4QFL6gZ5oFcYQQuso90tZt5eZcibgwbpbnpakSR4X7UE6na6oVP3z/132",
			"NickName": "zmx'",
			"Level": 0
		},
		"RewardUsers": null,
		"PraiseUsers": null,
		"articleComments": [{
			"Id": 23401747,
			"IsShowBest": 0,
			"CreateDate": "11-17",
			"Content": "111",
			"ContentHtml": "111",
			"ComUser": {
				"Id": 10475223,
				"Headimgurl": "http://wx.qlogo.cn/mmopen/tZOqj4KIx0hUglACMt0LKibI0aFfNpz7otTfNg5BmHjvic4QFL6gZ5oFcYQQuso90tZt5eZcibgwbpbnpakSR4X7UE6na6oVP3z/132",
				"NickName": "zmx'",
				"Level": 0
			},
			"DUser": {
				"Id": 10475223,
				"Headimgurl": "http://wx.qlogo.cn/mmopen/tZOqj4KIx0hUglACMt0LKibI0aFfNpz7otTfNg5BmHjvic4QFL6gZ5oFcYQQuso90tZt5eZcibgwbpbnpakSR4X7UE6na6oVP3z/132",
				"NickName": "zmx'",
				"Level": 0
			},
			"Voice": null,
			"Images": null,
			"Video": null
		}],
		"Voice": null,
		"Images": null,
		"video": null,
		"Type": null
	}, {
		"Id": 11826224,
		"Title": "",
		"CreateDate": "11-15",
		"Click": 237,
		"ContentDesc": "测试总",
		"Content": null,
		"ContentDescAll": "",
		"Address": "{\"streetNumber\":\"24号\",\"street\":\"览青大街\",\"district\":\"天河区\",\"city\":\"广州市\",\"province\":\"广东省\"}",
		"IsPraise": false,
		"Praise": 2,
		"Reward": 0,
		"CommentCount": 0,
		"ShareCount": 0,
		"IsNew": 1,
		"ArticleTypeID": 223738,
		"ArticleTypeName": "新板块12",
		"VideoList": "",
		"IsAdv": false,
		"IsTop": 0,
		"IsSubTop": 0,
		"IsHot": false,
		"IsGuerdon": 34,
		"GuerdonMoney": 0,
		"user": {
			"Id": 10475223,
			"Headimgurl": "http://wx.qlogo.cn/mmopen/tZOqj4KIx0hUglACMt0LKibI0aFfNpz7otTfNg5BmHjvic4QFL6gZ5oFcYQQuso90tZt5eZcibgwbpbnpakSR4X7UE6na6oVP3z/132",
			"NickName": "zmx'",
			"Level": 0
		},
		"RewardUsers": null,
		"PraiseUsers": null,
		"articleComments": null,
		"Voice": null,
		"Images": null,
		"video": null,
		"Type": null
	}, {
		"Id": 11168460,
		"Title": "",
		"CreateDate": "11-2",
		"Click": 408,
		"ContentDesc": "这就是看看",
		"Content": null,
		"ContentDescAll": "",
		"Address": "{\"streetNumber\":\"22号\",\"street\":\"览青大街\",\"district\":\"天河区\",\"city\":\"广州市\",\"province\":\"广东省\"}",
		"IsPraise": false,
		"Praise": 1,
		"Reward": 0,
		"CommentCount": 1,
		"ShareCount": 0,
		"IsNew": 1,
		"ArticleTypeID": 2042,
		"ArticleTypeName": "帅哥2",
		"VideoList": "",
		"IsAdv": false,
		"IsTop": 0,
		"IsSubTop": 0,
		"IsHot": false,
		"IsGuerdon": 0,
		"GuerdonMoney": 0,
		"user": {
			"Id": 10475223,
			"Headimgurl": "http://wx.qlogo.cn/mmopen/tZOqj4KIx0hUglACMt0LKibI0aFfNpz7otTfNg5BmHjvic4QFL6gZ5oFcYQQuso90tZt5eZcibgwbpbnpakSR4X7UE6na6oVP3z/132",
			"NickName": "zmx'",
			"Level": 0
		},
		"RewardUsers": null,
		"PraiseUsers": null,
		"articleComments": [{
			"Id": 22619715,
			"IsShowBest": 0,
			"CreateDate": "11-8",
			"Content": "好纠结",
			"ContentHtml": "好纠结",
			"ComUser": {
				"Id": 10475223,
				"Headimgurl": "http://wx.qlogo.cn/mmopen/tZOqj4KIx0hUglACMt0LKibI0aFfNpz7otTfNg5BmHjvic4QFL6gZ5oFcYQQuso90tZt5eZcibgwbpbnpakSR4X7UE6na6oVP3z/132",
				"NickName": "zmx'",
				"Level": 0
			},
			"DUser": {
				"Id": 10475223,
				"Headimgurl": "http://wx.qlogo.cn/mmopen/tZOqj4KIx0hUglACMt0LKibI0aFfNpz7otTfNg5BmHjvic4QFL6gZ5oFcYQQuso90tZt5eZcibgwbpbnpakSR4X7UE6na6oVP3z/132",
				"NickName": "zmx'",
				"Level": 0
			},
			"Voice": null,
			"Images": null,
			"Video": null
		}],
		"Voice": null,
		"Images": null,
		"video": null,
		"Type": null
	}, {
		"Id": 11198360,
		"Title": "",
		"CreateDate": "11-3",
		"Click": 201,
		"ContentDesc": null,
		"Content": null,
		"ContentDescAll": null,
		"Address": "",
		"IsPraise": false,
		"Praise": 1,
		"Reward": 0,
		"CommentCount": 0,
		"ShareCount": 0,
		"IsNew": 1,
		"ArticleTypeID": 0,
		"ArticleTypeName": "",
		"VideoList": "",
		"IsAdv": false,
		"IsTop": 0,
		"IsSubTop": 0,
		"IsHot": false,
		"IsGuerdon": 4,
		"GuerdonMoney": 0,
		"user": {
			"Id": 10475223,
			"Headimgurl": "http://wx.qlogo.cn/mmopen/tZOqj4KIx0hUglACMt0LKibI0aFfNpz7otTfNg5BmHjvic4QFL6gZ5oFcYQQuso90tZt5eZcibgwbpbnpakSR4X7UE6na6oVP3z/132",
			"NickName": "zmx'",
			"Level": 0
		},
		"RewardUsers": null,
		"PraiseUsers": null,
		"articleComments": null,
		"Voice": null,
		"Images": null,
		"video": null,
		"Type": null
	}, {
		"Id": 10858399,
		"Title": "",
		"CreateDate": "10-27",
		"Click": 379,
		"ContentDesc": "大家山卡卡",
		"Content": null,
		"ContentDescAll": "",
		"Address": "{\"streetNumber\":\"68号\",\"street\":\"金穗路\",\"district\":\"天河区\",\"city\":\"广州市\",\"province\":\"广东省\"}",
		"IsPraise": false,
		"Praise": 4,
		"Reward": 3,
		"CommentCount": 6,
		"ShareCount": 0,
		"IsNew": 1,
		"ArticleTypeID": 2042,
		"ArticleTypeName": "帅哥2",
		"VideoList": "",
		"IsAdv": false,
		"IsTop": 0,
		"IsSubTop": 0,
		"IsHot": false,
		"IsGuerdon": 34,
		"GuerdonMoney": 0,
		"user": {
			"Id": 10475223,
			"Headimgurl": "http://wx.qlogo.cn/mmopen/tZOqj4KIx0hUglACMt0LKibI0aFfNpz7otTfNg5BmHjvic4QFL6gZ5oFcYQQuso90tZt5eZcibgwbpbnpakSR4X7UE6na6oVP3z/132",
			"NickName": "zmx'",
			"Level": 0
		},
		"RewardUsers": null,
		"PraiseUsers": null,
		"articleComments": [{
			"Id": 21490494,
			"IsShowBest": 0,
			"CreateDate": "10-27",
			"Content": "支持！",
			"ContentHtml": "支持！",
			"ComUser": {
				"Id": 10475223,
				"Headimgurl": "http://wx.qlogo.cn/mmopen/tZOqj4KIx0hUglACMt0LKibI0aFfNpz7otTfNg5BmHjvic4QFL6gZ5oFcYQQuso90tZt5eZcibgwbpbnpakSR4X7UE6na6oVP3z/132",
				"NickName": "zmx'",
				"Level": 0
			},
			"DUser": {
				"Id": 10475223,
				"Headimgurl": "http://wx.qlogo.cn/mmopen/tZOqj4KIx0hUglACMt0LKibI0aFfNpz7otTfNg5BmHjvic4QFL6gZ5oFcYQQuso90tZt5eZcibgwbpbnpakSR4X7UE6na6oVP3z/132",
				"NickName": "zmx'",
				"Level": 0
			},
			"Voice": null,
			"Images": null,
			"Video": null
		}, {
			"Id": 21547622,
			"IsShowBest": 0,
			"CreateDate": "10-28",
			"Content": "支持！",
			"ContentHtml": "支持！",
			"ComUser": {
				"Id": 10475223,
				"Headimgurl": "http://wx.qlogo.cn/mmopen/tZOqj4KIx0hUglACMt0LKibI0aFfNpz7otTfNg5BmHjvic4QFL6gZ5oFcYQQuso90tZt5eZcibgwbpbnpakSR4X7UE6na6oVP3z/132",
				"NickName": "zmx'",
				"Level": 0
			},
			"DUser": {
				"Id": 10475223,
				"Headimgurl": "http://wx.qlogo.cn/mmopen/tZOqj4KIx0hUglACMt0LKibI0aFfNpz7otTfNg5BmHjvic4QFL6gZ5oFcYQQuso90tZt5eZcibgwbpbnpakSR4X7UE6na6oVP3z/132",
				"NickName": "zmx'",
				"Level": 0
			},
			"Voice": null,
			"Images": null,
			"Video": null
		}, {
			"Id": 21861693,
			"IsShowBest": 0,
			"CreateDate": "10-31",
			"Content": "哈哈哈",
			"ContentHtml": "哈哈哈",
			"ComUser": {
				"Id": 10475223,
				"Headimgurl": "http://wx.qlogo.cn/mmopen/tZOqj4KIx0hUglACMt0LKibI0aFfNpz7otTfNg5BmHjvic4QFL6gZ5oFcYQQuso90tZt5eZcibgwbpbnpakSR4X7UE6na6oVP3z/132",
				"NickName": "zmx'",
				"Level": 0
			},
			"DUser": {
				"Id": 10475223,
				"Headimgurl": "http://wx.qlogo.cn/mmopen/tZOqj4KIx0hUglACMt0LKibI0aFfNpz7otTfNg5BmHjvic4QFL6gZ5oFcYQQuso90tZt5eZcibgwbpbnpakSR4X7UE6na6oVP3z/132",
				"NickName": "zmx'",
				"Level": 0
			},
			"Voice": null,
			"Images": null,
			"Video": null
		}, {
			"Id": 21861718,
			"IsShowBest": 0,
			"CreateDate": "10-31",
			"Content": "11",
			"ContentHtml": "11",
			"ComUser": {
				"Id": 483604,
				"Headimgurl": "http://i.pengxun.cn/userlogo/2016/10/161028120446201682c334a5-6ea2-4990-9379-932446236d9b.jpg",
				"NickName": "J",
				"Level": 1
			},
			"DUser": {
				"Id": 10475223,
				"Headimgurl": "http://wx.qlogo.cn/mmopen/tZOqj4KIx0hUglACMt0LKibI0aFfNpz7otTfNg5BmHjvic4QFL6gZ5oFcYQQuso90tZt5eZcibgwbpbnpakSR4X7UE6na6oVP3z/132",
				"NickName": "zmx'",
				"Level": 0
			},
			"Voice": null,
			"Images": null,
			"Video": null
		}, {
			"Id": 22049219,
			"IsShowBest": 0,
			"CreateDate": "11-2",
			"Content": "支持！",
			"ContentHtml": "支持！",
			"ComUser": {
				"Id": 10475223,
				"Headimgurl": "http://wx.qlogo.cn/mmopen/tZOqj4KIx0hUglACMt0LKibI0aFfNpz7otTfNg5BmHjvic4QFL6gZ5oFcYQQuso90tZt5eZcibgwbpbnpakSR4X7UE6na6oVP3z/132",
				"NickName": "zmx'",
				"Level": 0
			},
			"DUser": {
				"Id": 10475223,
				"Headimgurl": "http://wx.qlogo.cn/mmopen/tZOqj4KIx0hUglACMt0LKibI0aFfNpz7otTfNg5BmHjvic4QFL6gZ5oFcYQQuso90tZt5eZcibgwbpbnpakSR4X7UE6na6oVP3z/132",
				"NickName": "zmx'",
				"Level": 0
			},
			"Voice": null,
			"Images": null,
			"Video": null
		}, {
			"Id": 22077259,
			"IsShowBest": 0,
			"CreateDate": "11-2",
			"Content": "哈哈镜",
			"ContentHtml": "哈哈镜",
			"ComUser": {
				"Id": 10475223,
				"Headimgurl": "http://wx.qlogo.cn/mmopen/tZOqj4KIx0hUglACMt0LKibI0aFfNpz7otTfNg5BmHjvic4QFL6gZ5oFcYQQuso90tZt5eZcibgwbpbnpakSR4X7UE6na6oVP3z/132",
				"NickName": "zmx'",
				"Level": 0
			},
			"DUser": {
				"Id": 10475223,
				"Headimgurl": "http://wx.qlogo.cn/mmopen/tZOqj4KIx0hUglACMt0LKibI0aFfNpz7otTfNg5BmHjvic4QFL6gZ5oFcYQQuso90tZt5eZcibgwbpbnpakSR4X7UE6na6oVP3z/132",
				"NickName": "zmx'",
				"Level": 0
			},
			"Voice": null,
			"Images": null,
			"Video": null
		}],
		"Voice": null,
		"Images": null,
		"video": null,
		"Type": null
	}],
	"errcode": 0,
	"pageIndex": 1,
	"totalPage": 27,
	"totalCount": 261
}